Using the Cache • icdb
…
## Connect to the artifical database
srv <- server(config = system.file("extdata", "sqlite.yaml", package="icdb"))
#> Connecting using config file

## Show the cache contents -- before you do anything, it will be empty
show_cache()
#> # A tibble: 0 × 7
#> # … with 7 variables: hash <chr>, data <chr>, hits <dbl>, write_time <date>,
#> #   last_access <date>, time <drtn>, in_memory <lgl>
                                       
## Perform a query (this will write results to the cache) 
srv$APC_SYNTH %>% select(NHSNumber, HospitalProviderSpellIdentifier) %>% run()
#> # A tibble: 405 × 2
#>    NHSNumber  HospitalProviderSpellIdentifier
#>    <chr>                                <int>
#>  1 9182076353                               1
#>  2 9182076353                               1
#>  3 9182076353                               1
#>  4 9182076353                               1
#>  5 2948013764                               2
#>  6 9340756123                               3
#>  7 9340756123                               3
#>  8 9340756123                               3
#>  9 9340756123                               3
#> 10 9340756123                               3
#> # … with 395 more rows
…
When you run the same query again, the server will not be queried.
Instead, the cached results will be used. You can tell that the cache
has been used by looking at the hits column in the cache tibble
– each time you use the cached results, the hits will increment by
one.

## Do the same query again
srv$APC_SYNTH %>% select(NHSNumber, HospitalProviderSpellIdentifier) %>% run()
#> Found cached results for this query, using that
#> # A tibble: 405 × 2
#>    NHSNumber  HospitalProviderSpellIdentifier
#>    <chr>                                <int>
#>  1 9182076353                               1
#>  2 9182076353                               1
#>  3 9182076353                               1
#>  4 9182076353                               1
#>  5 2948013764                               2
#>  6 9340756123                               3
#>  7 9340756123                               3
#>  8 9340756123                               3
#>  9 9340756123                               3
#> 10 9340756123                               3
#> # … with 395 more rows
…
The mechanism used to prevent out-of-date results is the cache
lifetime. The default cache lifetime is 24 hours, but you can set it to
anything you like. In the example below, a lifetime of 5 seconds is
used. This means that cached results will only remain valid fo 5
seconds; after that, any attempt to use them will result in their
removal from the cache, as shown below:

## Set a new default lifetime
use_cache(TRUE, lifetime = lubridate::dseconds(5))

## Perform a query
srv$APC_SYNTH %>% select(NHSNumber, HospitalProviderSpellIdentifier) %>% run()
#> Found cached results for this query, using that
#> # A tibble: 405 × 2
#>    NHSNumber  HospitalProviderSpellIdentifier
#>    <chr>                                <int>
#>  1 9182076353                               1
#>  2 9182076353                               1
#>  3 9182076353                               1
#>  4 9182076353                               1
#>  5 2948013764                               2
#>  6 9340756123                               3
#>  7 9340756123                               3
#>  8 9340756123                               3
#>  9 9340756123                               3
#> 10 9340756123                               3
#> # … with 395 more rows

## Wait for longer than 5 seconds
Sys.sleep(10)

## Do the same query again -- the cached result will not be used
srv$APC_SYNTH %>% select(NHSNumber, HospitalProviderSpellIdentifier) %>% run()
#> Cached object has expired, removing from the cache
#> # A tibble: 405 × 2
#>    NHSNumber  HospitalProviderSpellIdentifier
#>    <chr>                                <int>
#>  1 9182076353                               1
#>  2 9182076353                               1
#>  3 9182076353                               1
#>  4 9182076353                               1
#>  5 2948013764                               2
#>  6 9340756123                               3
#>  7 9340756123                               3
#>  8 9340756123                               3
#>  9 9340756123                               3
#> 10 9340756123                               3
#> # … with 395 more rows
…
