Get Started • icdb
…
library(dplyr)
library(lubridate)

srv$APC_SYNTH %>% filter(StartTime_HospitalProviderSpell > !!ymd("2019-1-1")) %>% select(NHSNumber, PrimaryDiagnosis_ICD) %>% show_query()
#> <SQL>
#> SELECT `NHSNumber`, `PrimaryDiagnosis_ICD`
#> FROM `APC_SYNTH`
#> WHERE (`StartTime_HospitalProviderSpell` > '2019-01-01')

To actually run the query, replace show_query() with
run():

# This returns a tibble containing the results of the query
srv$APC_SYNTH %>% filter(StartTime_HospitalProviderSpell > !!ymd("2019-1-1")) %>% select(NHSNumber, PrimaryDiagnosis_ICD) %>% run()
#> # A tibble: 190 × 2
#>    NHSNumber  PrimaryDiagnosis_ICD
#>    <chr>      <chr>               
#>  1 9182076353 K264                
#>  2 9182076353 I212                
#>  3 9182076353 I609                
#>  4 9182076353 I600                
#>  5 9340756123 K226                
#>  6 9340756123 K252                
#>  7 9340756123 I214                
#>  8 9340756123 K5793               
#>  9 9340756123 K5791               
#> 10 5376108293 I211                
#> # … with 180 more rows
…
